<svg width="18" height="11" viewBox="0 0 18 11" fill="none" xmlns="http://www.w3.org/2000/svg">
<path d="M9.89109 0.369241L17.6306 8.10895C18.1231 8.60129 18.1231 9.39954 17.6306 9.89164C17.1384 10.3838 16.3402 10.3838 15.8481 9.89164L8.99987 3.04319L2.15186 9.89144C1.65952 10.3836 0.861395 10.3836 0.369254 9.89144C-0.123085 9.3993 -0.123085 8.60109 0.369254 8.10875L8.10885 0.369042C8.35504 0.122971 8.67735 7.54437e-05 8.99983 7.54476e-05C9.32247 7.54514e-05 9.64502 0.12321 9.89109 0.369241Z" fill="#F44163"/>
</svg>
